<?xml version="1.0" encoding="UTF-8"?>
<svg viewBox="0 0 175 175" version="1.1" xmlns="http://www.w3.org/2000/svg" xmlns:xlink="http://www.w3.org/1999/xlink">
    <!-- Generator: Sketch 47.1 (45422) - http://www.bohemiancoding.com/sketch -->
    <title>rfq_icon-svg</title>
    <desc>Created with Sketch.</desc>
    <defs></defs>
    <g id="Symbols" stroke="none" stroke-width="1" fill="none" fill-rule="evenodd">
        <g id="rfq_icon-svg" fill="#FFFFFF">
            <path d="M93.5,38.24 C93.5,39.48 92.5,40.48 91.261,40.48 L58.24,40.48 C57,40.48 56,39.48 56,38.24 C56,37.01 57,36 58.24,36 L91.261,36 C92.5,36 93.5,37.01 93.5,38.24" id="Fill-7"></path>
            <path d="M93.5,53.23 C93.5,54.47 92.5,55.47 91.261,55.47 L58.24,55.47 C57,55.47 56,54.47 56,53.23 C56,52 57,51 58.24,51 L91.261,51 C92.5,51 93.5,52 93.5,53.23" id="Fill-9"></path>
            <path d="M128.33,102.23 C128.33,103.47 127.33,104.47 126.101,104.47 L58.24,104.47 C57,104.47 56,103.47 56,102.23 C56,101 57,100 58.24,100 L126.101,100 C127.33,100 128.33,101 128.33,102.23" id="Fill-11"></path>
            <path d="M128.33,86.23 C128.33,87.47 127.33,88.47 126.101,88.47 L58.24,88.47 C57,88.47 56,87.47 56,86.23 C56,85 57,84 58.24,84 L126.101,84 C127.33,84 128.33,85 128.33,86.23" id="Fill-11-Copy"></path>
            <path d="M56,53.23 C56,52 57,51 58.24,51 L91.261,51 C92.5,51 93.5,52 93.5,53.23 C93.5,54.47 92.5,55.47 91.261,55.47 L58.24,55.47 C57,55.47 56,54.47 56,53.23" id="Fill-17"></path>
            <path d="M56,38.24 C56,37.01 57,36 58.24,36 L91.261,36 C92.5,36 93.5,37.01 93.5,38.24 C93.5,39.48 92.5,40.48 91.261,40.48 L58.24,40.48 C57,40.48 56,39.48 56,38.24" id="Fill-19"></path>
            <path d="M137.391,140.87 L47.13,140.87 L47.13,20.48 L102.941,20.48 L102.941,52.68 C102.941,53.92 103.941,54.92 105.17,54.92 L137.391,54.92 L137.391,140.87 Z M122.731,155.52 L32.481,155.52 L32.481,35.13 L42.661,35.13 L42.661,143.11 C42.661,144.34 43.661,145.35 44.891,145.35 L122.731,145.35 L122.731,155.52 Z M107.411,23.64 L134.221,50.45 L107.411,50.45 L107.411,23.64 Z M141.821,52.24 C141.79,52.13 141.761,52.03 141.721,51.93 C141.71,51.9 141.701,51.86 141.691,51.83 C141.641,51.71 141.58,51.6 141.521,51.5 C141.5,51.48 141.5,51.46 141.481,51.44 C141.401,51.32 141.311,51.2 141.201,51.1 L106.761,16.66 C106.661,16.56 106.54,16.46 106.42,16.38 C106.411,16.37 106.401,16.37 106.391,16.36 C106.271,16.29 106.161,16.22 106.031,16.17 C106.021,16.17 106,16.16 105.991,16.16 C105.87,16.11 105.741,16.07 105.611,16.04 C105.571,16.04 105.521,16.04 105.481,16.03 C105.38,16.02 105.281,16 105.17,16 L44.891,16 C43.661,16 42.661,17 42.661,18.24 L42.661,30.66 L30.241,30.66 C29,30.66 28,31.66 28,32.89 L28,157.76 C28,159 29,160 30.241,160 L124.971,160 C126.201,160 127.21,159 127.21,157.76 L127.21,145.35 L139.62,145.35 C140.861,145.35 141.861,144.34 141.861,143.11 L141.861,52.65 C141.861,52.51 141.84,52.38 141.821,52.24 L141.821,52.24 Z" id="Fill-29"></path>
            <path d="" id="Fill-32"></path>
            <path d="M56,53.23 C56,52 57,51 58.24,51 L91.261,51 C92.5,51 93.5,52 93.5,53.23 C93.5,54.47 92.5,55.47 91.261,55.47 L58.24,55.47 C57,55.47 56,54.47 56,53.23" id="Fill-34"></path>
            <path d="M56,38.24 C56,37.01 57,36 58.24,36 L91.261,36 C92.5,36 93.5,37.01 93.5,38.24 C93.5,39.48 92.5,40.48 91.261,40.48 L58.24,40.48 C57,40.48 56,39.48 56,38.24" id="Fill-36"></path>
            <path d="M102.57,117.23 C102.57,118.47 101.57,119.47 100.341,119.47 L58.24,119.47 C57,119.47 56,118.47 56,117.23 C56,116 57,115 58.24,115 L100.341,115 C101.57,115 102.57,116 102.57,117.23" id="Fill-40"></path>
            <path d="M128.33,69.23 C128.33,70.47 127.33,71.47 126.101,71.47 L58.24,71.47 C57,71.47 56,70.47 56,69.23 C56,68 57,67 58.24,67 L126.101,67 C127.33,67 128.33,68 128.33,69.23" id="Fill-42-Copy-2"></path>
        </g>
    </g>
</svg>