<?xml version="1.0" encoding="UTF-8"?>
<svg viewBox="0 0 175 175" version="1.1" xmlns="http://www.w3.org/2000/svg" xmlns:xlink="http://www.w3.org/1999/xlink">
    <!-- Generator: Sketch 47.1 (45422) - http://www.bohemiancoding.com/sketch -->
    <title>schedule_icon-svg</title>
    <desc>Created with Sketch.</desc>
    <defs>
        <polygon id="path-1" points="70.155 144 140.31 144 140.31 0 0 0 0 72 0 144"></polygon>
    </defs>
    <g id="Symbols" stroke="none" stroke-width="1" fill="none" fill-rule="evenodd">
        <g id="schedule_icon-svg">
            <g id="Page-1" transform="translate(17.000000, 16.000000)">
                <mask id="mask-2" fill="white">
                    <use xlink:href="#path-1"></use>
                </mask>
                <g id="Clip-2"></g>
                <path d="M76.88,95.15 L135.93,95.15 L135.93,78.18 L76.88,78.18 L76.88,95.15 Z M74.68,26.8 L61.75,4.4 L87.62,4.4 L74.68,26.8 Z M76.881,125.99 L116.75,125.99 L116.75,109.01 L76.881,109.01 L76.881,125.99 Z M76.881,64.31 L93.2,64.31 L93.2,47.34 L76.881,47.34 L76.881,64.31 Z M4.39,64.31 L72.49,64.31 L72.49,47.34 L4.39,47.34 L4.39,64.31 Z M60.96,95.15 L72.49,95.15 L72.49,78.18 L60.96,78.18 L60.96,95.15 Z M41.79,125.99 L72.49,125.99 L72.49,109.01 L41.79,109.01 L41.79,125.99 Z M138.12,73.79 L76.881,73.79 L76.881,68.7 L95.39,68.7 C96.61,68.7 97.591,67.72 97.591,66.51 L97.591,45.14 C97.591,43.93 96.61,42.95 95.39,42.95 L76.881,42.95 L76.881,31.78 L93.33,3.3 C93.72,2.62 93.72,1.78 93.33,1.1 C92.93,0.42 92.21,0 91.421,0 L57.95,0 C57.16,0 56.43,0.42 56.04,1.1 C55.65,1.78 55.65,2.62 56.04,3.3 L72.49,31.78 L72.49,42.95 L2.19,42.95 C0.98,42.95 0,43.93 0,45.14 L0,66.51 C0,67.72 0.98,68.7 2.19,68.7 L72.49,68.7 L72.49,73.79 L58.77,73.79 C57.56,73.79 56.57,74.77 56.57,75.98 L56.57,97.34 C56.57,98.56 57.56,99.54 58.77,99.54 L72.49,99.54 L72.49,104.62 L39.6,104.62 C38.381,104.62 37.4,105.6 37.4,106.82 L37.4,128.18 C37.4,129.39 38.381,130.37 39.6,130.37 L72.49,130.37 L72.49,141.81 C72.49,143.02 73.47,144 74.68,144 C75.9,144 76.881,143.02 76.881,141.81 L76.881,130.37 L118.95,130.37 C120.16,130.37 121.14,129.39 121.14,128.18 L121.14,106.82 C121.14,105.61 120.16,104.62 118.95,104.62 L76.881,104.62 L76.881,99.54 L138.12,99.54 C139.33,99.54 140.31,98.56 140.31,97.35 L140.31,75.98 C140.32,74.77 139.33,73.79 138.12,73.79 L138.12,73.79 Z" id="Fill-1" fill="#FFFFFF" mask="url(#mask-2)"></path>
            </g>
        </g>
    </g>
</svg>