<?xml version="1.0" encoding="utf-8"?>
<!-- Generator: Adobe Illustrator 18.1.1, SVG Export Plug-In . SVG Version: 6.00 Build 0)  -->
<!DOCTYPE svg PUBLIC "-//W3C//DTD SVG 1.1//EN" "http://www.w3.org/Graphics/SVG/1.1/DTD/svg11.dtd">
<svg version="1.1" id="Layer_1" xmlns="http://www.w3.org/2000/svg" xmlns:xlink="http://www.w3.org/1999/xlink" x="0px" y="0px"
	 viewBox="0 0 188 188" enable-background="new 0 0 188 188" xml:space="preserve">
<g>
	<path fill="none" stroke="#51A6C3" stroke-width="3" stroke-miterlimit="10" d="M31.6,34.2C15.5,50.3,5.5,72.5,5.5,97.2
		c0,49.2,39.9,89.1,89.1,89.1c49.2,0,89.1-39.9,89.1-89.1c0-49.2-39.9-89.1-89.1-89.1"/>
	<path fill="none" stroke="#51A6C3" stroke-width="3" stroke-miterlimit="10" d="M94.6,17.1c44.2,0,80,35.8,80,80
		c0,44.2-35.8,80-80,80c-44.2,0-80-35.8-80-80c0-22.1,9-42.1,23.4-56.6"/>
	<path fill="none" stroke="#51A6C3" stroke-width="3" stroke-miterlimit="10" d="M94.6,17.1c44.2,0,80,35.8,80,80
		c0,44.2-35.8,80-80,80c-44.2,0-80-35.8-80-80c0-22.1,9-42.1,23.4-56.6l56.6,58.3V17.1z"/>
</g>
<path fill="none" stroke="#51A6C3" stroke-width="3" stroke-miterlimit="10" d="M32.9,23.5c14.7-13.3,33.3-21,53-22v75L32.9,23.5z"
	/>
<g>
	<defs>
		<path id="SVGID_1_" d="M156.7,97.2c0,34.3-27.8,62.1-62.1,62.1c-34.3,0-62.1-27.8-62.1-62.1c0-34.3,27.8-62.1,62.1-62.1
			C128.9,35.1,156.7,62.9,156.7,97.2z M94.6,21.2c-42,0-76,34-76,76s34,76,76,76c42,0,76-34,76-76S136.6,21.2,94.6,21.2z"/>
	</defs>
	<clipPath id="SVGID_2_">
		<use xlink:href="#SVGID_1_"  overflow="visible"/>
	</clipPath>
	
		<line clip-path="url(#SVGID_2_)" fill="none" stroke="#51A6C3" stroke-width="3" stroke-miterlimit="10" x1="165.7" y1="97.2" x2="23.5" y2="97.2"/>
	
		<line clip-path="url(#SVGID_2_)" fill="none" stroke="#51A6C3" stroke-width="3" stroke-miterlimit="10" x1="94.6" y1="168.2" x2="94.6" y2="50.5"/>
	
		<line clip-path="url(#SVGID_2_)" fill="none" stroke="#51A6C3" stroke-width="3" stroke-miterlimit="10" x1="156.4" y1="132.3" x2="32.8" y2="62"/>
	
		<line clip-path="url(#SVGID_2_)" fill="none" stroke="#51A6C3" stroke-width="3" stroke-miterlimit="10" x1="59.5" y1="158.9" x2="129.7" y2="35.4"/>
	
		<line clip-path="url(#SVGID_2_)" fill="none" stroke="#51A6C3" stroke-width="3" stroke-miterlimit="10" x1="129.2" y1="159.2" x2="89.6" y2="85.2"/>
	
		<line clip-path="url(#SVGID_2_)" fill="none" stroke="#51A6C3" stroke-width="3" stroke-miterlimit="10" x1="32.5" y1="131.7" x2="156.7" y2="62.6"/>
</g>
<g>
	<path fill="#51A6C3" d="M79,49.1c0.8,2.1-0.3,4.5-2.4,5.3c-2.2,0.8-4.5-0.3-5.2-2.4c-0.8-2.2,0.2-4.5,2.4-5.3
		C75.8,45.9,78.2,47,79,49.1z M69.5,42.6L58.4,16.4l6.8-2.5l8.9,27L69.5,42.6z"/>
</g>
</svg>
