<?xml version="1.0" encoding="utf-8"?>
<!-- Generator: Adobe Illustrator 18.1.1, SVG Export Plug-In . SVG Version: 6.00 Build 0)  -->
<!DOCTYPE svg PUBLIC "-//W3C//DTD SVG 1.1//EN" "http://www.w3.org/Graphics/SVG/1.1/DTD/svg11.dtd">
<svg version="1.1" id="Layer_1" xmlns="http://www.w3.org/2000/svg" xmlns:xlink="http://www.w3.org/1999/xlink" x="0px" y="0px"
	 viewBox="13 28 276 275" enable-background="new 13 28 276 275" xml:space="preserve">
<g>
	<path fill="none" stroke="#449BBC" stroke-width="3" stroke-linecap="round" stroke-miterlimit="10" d="M64.3,165.7
		c0,2.3,1.8,4.3,4.2,4.3l2.1,0c2.4,0,4.3-1.8,4.3-4.2l1.1-53.2c0-2.3-1.8-4.3-4.2-4.3l-2.1,0c-2.3,0-4.3,1.8-4.3,4.2L64.3,165.7z"/>
	<path fill="none" stroke="#449BBC" stroke-width="3" stroke-linecap="round" stroke-miterlimit="10" d="M73.6,287.7
		c0,0-5.9-56.6-4.5-117.4"/>
	<path fill="none" stroke="#449BBC" stroke-width="3" stroke-linecap="round" stroke-miterlimit="10" d="M49.3,200.7
		c0.7,2.2-0.6,4.6-2.8,5.3l-2,0.6c-2.2,0.7-4.6-0.6-5.3-2.8L23.5,153c-0.7-2.2,0.6-4.6,2.8-5.3l2-0.6c2.2-0.7,4.6,0.6,5.3,2.8
		L49.3,200.7z"/>
	<path fill="none" stroke="#449BBC" stroke-width="3" stroke-linecap="round" stroke-miterlimit="10" d="M68.2,290.1
		c0,0-4.1-25.2-22.2-83.3"/>
	
		<line fill="none" stroke="#449BBC" stroke-width="3" stroke-linecap="round" stroke-miterlimit="10" x1="70.9" y1="107.9" x2="71.4" y2="96.3"/>
	
		<line fill="none" stroke="#449BBC" stroke-width="3" stroke-linecap="round" stroke-miterlimit="10" x1="26.6" y1="147.6" x2="23.3" y2="137.3"/>
</g>
<g>
	<path fill="none" stroke="#449BBC" stroke-width="3" stroke-linecap="round" stroke-miterlimit="10" d="M193.3,125.4
		c17.8-27.8,20.5-59.8,5.4-84.4c2.5,1.2,4.3,2.2,6.8,3.7c34.6,22.2,44.7,68.3,22.5,102.9c-22.2,34.6-68.3,44.7-102.9,22.5
		c-2.4-1.6-4-2.8-6.2-4.6C147.6,168.9,175.5,153.2,193.3,125.4z"/>
</g>
<path fill="none" stroke="#449BBC" stroke-width="3" stroke-linecap="round" stroke-miterlimit="10" d="M286.8,290.3
	c-10.8,0-20.5-4.8-27.1-12.3c-6.6,7.6-16.3,12.3-27.1,12.3c-10.8,0-20.5-4.8-27.1-12.3c-6.6,7.6-16.3,12.3-27.1,12.3
	c-10.8,0-20.5-4.8-27.1-12.3c-6.6,7.6-16.3,12.3-27.1,12.3c-10.8,0-20.5-4.8-27.1-12.3c-6.6,7.6-16.3,12.3-27.1,12.3
	c-10.8,0-20.5-4.8-27.1-12.3c-6.6,7.6-16.3,12.3-27.1,12.3"/>
<g opacity="0.2">
	<path fill="#449BBC" d="M193.3,125.4c17.8-27.8,20.5-59.8,5.4-84.4c2.5,1.2,4.3,2.2,6.8,3.7c34.6,22.2,44.7,68.3,22.5,102.9
		c-22.2,34.6-68.3,44.7-102.9,22.5c-2.4-1.6-4-2.8-6.2-4.6C147.6,168.9,175.5,153.2,193.3,125.4z"/>
</g>
</svg>
